<svg width="76" height="77" viewBox="0 0 76 77" fill="none" xmlns="http://www.w3.org/2000/svg">
<g filter="url(#filter0_d)">
<path d="M39.9519 6.40995L17.5689 13.9534C14.9998 14.8211 13.1019 16.9533 12.5914 19.548L8.13573 42.1592C7.62529 44.7513 8.57566 47.409 10.6315 49.1361L28.57 64.2011C30.6287 65.9282 33.4798 66.4592 36.0489 65.5943L58.4318 58.0481C61.0009 57.1804 62.9017 55.0482 63.4121 52.4562L67.865 29.8395C68.3754 27.2475 67.4251 24.5898 65.3692 22.8627L47.4307 7.8004C45.372 6.07329 42.5209 5.54229 39.9519 6.40995Z" fill="#FEDD70"/>
<path d="M40.2718 7.35738L40.2712 7.35758L17.8889 14.9008C15.6485 15.6575 14.0117 17.5094 13.5726 19.7411L13.5726 19.7414L9.11688 42.3524C8.67821 44.5801 9.49216 46.8729 11.2747 48.3704L29.2127 63.435C31.0013 64.9356 33.4871 65.4014 35.7294 64.6467L40.2718 7.35738ZM40.2718 7.35738C42.5135 6.60029 44.999 7.0658 46.7877 8.56623C46.7878 8.56632 46.7879 8.56641 46.788 8.5665L64.726 23.6283C66.5086 25.1259 67.3225 27.4187 66.8838 29.6463L66.8838 29.6464L62.4309 52.263C62.4309 52.263 62.4309 52.263 62.4309 52.263C61.9921 54.4912 60.3532 56.3435 58.1124 57.1005C58.1122 57.1006 58.112 57.1006 58.1119 57.1007L35.7298 64.6466L40.2718 7.35738Z" stroke="#FEA370" stroke-width="2"/>
</g>
<path d="M38.7897 40.9463L31.8897 27.8881L26.556 23.6426L19.8466 28.2955L12.8408 41.6324C13.1371 43.9696 13.7298 48.2151 14.4282 51.024C14.5976 51.6887 14.7669 52.3534 14.915 52.9967H36.8001C37.3716 50.9811 37.9854 48.7083 38.4299 46.5426C38.8109 44.6986 39.086 43.1333 39.2765 41.8468L38.7897 40.9463Z" fill="#B16733"/>
<path d="M39.2773 41.8465L63.9775 41.825C64.3584 39.9381 64.6124 38.523 64.6124 38.523L39.743 38.2871L39.7007 38.4372C39.6372 39.1448 39.5102 40.2812 39.2773 41.8465Z" fill="#920C36"/>
<path d="M39.3202 39.2107L33.0763 27.1603L26.7479 21.7998L18.7473 27.5463L12.6517 39.9612L9.625 42.5342H43.2569L39.5953 39.3608L39.3202 39.2107Z" fill="#D98239"/>
<path d="M33.7536 24.5225L25.9436 21.0918L18.7473 25.6375L16.2921 29.3255L12.6517 39.9607L9.625 42.5338H12.5035L19.8691 28.2963L26.5574 23.6434L31.9122 27.8889L38.8122 40.9471L39.6588 42.5338H43.2569C43.2993 41.9763 39.7435 37.6021 39.7435 37.6021L33.7536 24.5225Z" fill="#A86232"/>
<path d="M28.8431 38.009H22.6416V29.7324H28.8431V38.009Z" fill="#442121"/>
<path d="M27.8913 37.1501H23.5947V30.5889H27.8913V37.1501Z" fill="white"/>
<path fill-rule="evenodd" clip-rule="evenodd" d="M12.9044 39.4463L39.6364 39.4893L40.2925 40.0478L12.6504 39.9619L12.9044 39.4463Z" fill="#8B4F2D"/>
<path fill-rule="evenodd" clip-rule="evenodd" d="M12.6935 39.8582L18.7468 27.5505L26.7474 21.8041L24.652 20.0029L16.6726 26.2425L9.60335 39.8582L7 42.5385H9.62452L12.6512 39.9654L12.6935 39.8582Z" fill="#442121"/>
<path fill-rule="evenodd" clip-rule="evenodd" d="M18.7481 27.5459L33.2888 27.5889L33.5851 28.1474L18.4941 28.0615L18.7481 27.5459Z" fill="#8B4F2D"/>
<path d="M39.0655 42.5576C38.875 43.8441 38.5998 45.4094 38.2189 47.2534C37.8167 49.1831 37.3088 51.1773 36.8008 52.9998H60.7178C61.4585 51.1773 62.157 49.3547 62.5168 48.0038C62.9825 46.2027 63.4269 44.1872 63.7656 42.5361L39.0655 42.5576Z" fill="#93542E"/>
<path d="M43.4688 43.5234L48.5908 43.695L48.5485 50.4492L43.4899 50.6207L43.4688 43.5234Z" fill="#442121"/>
<path d="M44.7172 44.8711L47.384 44.9354L47.257 49.4168L44.6113 49.4597L44.7172 44.8711Z" fill="#E6E6E6"/>
<path d="M53.1416 43.6279L58.2636 43.7995L58.2213 50.5323L53.1628 50.7038L53.1416 43.6279Z" fill="#442121"/>
<path d="M54.3695 44.959L57.0575 45.0233L56.9094 49.5047L54.2637 49.5476L54.3695 44.959Z" fill="#E6E6E6"/>
<path fill-rule="evenodd" clip-rule="evenodd" d="M13.1599 44.2086L12.9482 42.5361L39.1723 42.5576L38.8759 44.2086H13.1599Z" fill="#93542E"/>
<path d="M21.5839 52.9973V43.7987H20.8643V42.7266H31.2353V43.6271H30.558V52.9973H21.5839Z" fill="#442121"/>
<path d="M23.6143 43.7979H28.5035L26.006 46.9713L23.6143 43.7979Z" fill="#E6E6E6"/>
<path d="M25.414 47.6582L22.6201 44.2061V51.818L25.414 47.6582Z" fill="#E6E6E6"/>
<path d="M26.5146 47.6574L29.499 43.7979V51.6027L26.5146 47.6574Z" fill="#E6E6E6"/>
<path d="M26.0069 48.3193L23.6152 52.0074L28.6738 51.8144L26.0069 48.3193Z" fill="#E6E6E6"/>
<path fill-rule="evenodd" clip-rule="evenodd" d="M39.172 42.5576L38.791 44.2086H63.4065L63.7663 42.5361L39.172 42.5576Z" fill="#78422A"/>
<path d="M33.0762 27.1582L62.5173 27.8872L67.0891 40.0448H39.7433L33.0762 27.1582Z" fill="#442121"/>
<path d="M24.6523 20L33.0762 27.1616L62.5174 27.8907L52.1251 20.4503L24.6523 20Z" fill="#614343"/>
<path fill-rule="evenodd" clip-rule="evenodd" d="M39.7432 40.0469H67.0889L70.3061 43.2203H43.3625L39.7432 40.0469Z" fill="#614343"/>
<path d="M7.34861 23.4336C6.85871 23.3343 5.85919 25.1703 6.05055 26.4836C8.53745 27.2435 13.6786 28.3896 14.3478 26.8942C15.1843 25.0251 8.32799 23.632 7.34861 23.4336Z" fill="white"/>
<path d="M14.5942 20.0435C14.3948 19.839 13.3321 20.3845 13 21.0663C13.93 22.2252 15.9892 24.4205 16.7863 23.9296C17.7827 23.316 14.9929 20.4523 14.5942 20.0435Z" fill="white"/>
<path d="M19.0746 15.2709C18.9727 14.8547 17.184 14.7499 16.2354 15.3777C16.554 17.5838 17.5422 21.9891 18.9461 21.9622C20.7011 21.9286 19.2783 16.1029 19.0746 15.2709Z" fill="white"/>
<defs>
<filter id="filter0_d" x="0" y="0" width="76.0007" height="76.0024" filterUnits="userSpaceOnUse" color-interpolation-filters="sRGB">
<feFlood flood-opacity="0" result="BackgroundImageFix"/>
<feColorMatrix in="SourceAlpha" type="matrix" values="0 0 0 0 0 0 0 0 0 0 0 0 0 0 0 0 0 0 127 0"/>
<feOffset dy="2"/>
<feGaussianBlur stdDeviation="4"/>
<feColorMatrix type="matrix" values="0 0 0 0 0 0 0 0 0 0 0 0 0 0 0 0 0 0 0.2 0"/>
<feBlend mode="normal" in2="BackgroundImageFix" result="effect1_dropShadow"/>
<feBlend mode="normal" in="SourceGraphic" in2="effect1_dropShadow" result="shape"/>
</filter>
</defs>
</svg>
